project3
…
## Loading required package: lattice

## 
## Attaching package: 'caret'

## The following object is masked from 'package:purrr':
## 
##     lift

Gun Violence Data

FireArm

## # A tibble: 251 x 5
##    year_of_data state_of_shootin rate_per_month deaths_per_year URL       
##           <dbl> <chr>                      <dbl>           <dbl> <chr>     
##  1         2017 AL                          22.9            1124 /nchs/pre
##  2         2017 AK                          24.5             180 /nchs/pre
##  3         2017 AZ                          15.8            1134 /nchs/pre
##  4         2017 AR                          20.3             613 /nchs/pre
##  5         2017 CA                           7.9            3184 /nchs/pre
##  6         2017 CO                          13.4             779 /nchs/pre
##  7         2017 CT                           5.1             188 /nchs/pre
##  8         2017 DE                          11.7             111 /nchs/pre
##  9         2017 FL                          12.4            2724 /nchs/pre
## 10         2017 GA                          15.4            1623 /nchs/pre
## #  with 241 more rows

Poverty Data

poverty <- tibble(state = People$State, abovePoverty = People$Above_Poverty_Rate)

poverty

## # A tibble: 50 x 2
##    state         abovePoverty
##    <chr>                <dbl>
##  1 Massachusetts         88.3
##  2 Maryland              89.6
##  3 Colorado              87.9
##  4 Connecticut           89.2
##  5 New Jersey            88.9
##  6 Virginia              88.2
##  7 Vermont               87.8
##  8 New York              84.1
##  9 New Hampshire         90.8
## 10 Minnesota             88.6
## #  with 40 more rows
…
poverty2.0 <- read_csv("data.csv")

## Parsed with column specification:
## cols(
##   rank = col_double(),
##   State = col_character(),
##   Population = col_double(),
##   Poverty = col_double(),
##   PovertyRate = col_double()
## )

poverty2.0

## # A tibble: 51 x 5
##     rank State                Population Poverty PovertyRate
##    <dbl> <chr>                     <dbl>   <dbl>       <dbl>
##  1     1 Mississippi             2986220  620007        20.8
##  2     2 New Mexico              2084828  420293        20.2
##  3     3 Louisiana               4663461  887574        19.0
##  4     4 Kentucky                4424376  783586        17.7
##  5     5 Arkansas                2977944  524211        17.7
##  6     6 Alabama                 4850771  849699        17.5
##  7     7 West Virginia           1836843  317089        17.3
##  8     8 Arizona                 6809946 1128046        16.6
##  9     9 District of Columbia     672391  111025        16.5
## 10    10 Georgia                10201635 1679030        16.5
## #  with 41 more rows
…
