Statistics Of Crime Within the United States
…
    ammount <-         table %>%
                       html_nodes("td.cellright") %>%
                       html_text()

    Juvenile_arrest <- tibble(
                            Year = year,
                            Ammount = ammount,
                            )

}

Arrests = web_scraper("https://www.ojjdp.gov/ojstatbb/crime/JAR_Display.asp?ID=qa05200&selOffenses=1&text=yes")
print(Arrests)

## # A tibble: 39 x 2
##     Year Ammount
##    <int> <chr>  
##  1  1980 6,396.6
##  2  1981 6,370.3
##  3  1982 6,607.7
##  4  1983 6,073.9
##  5  1984 6,110.2
##  6  1985 6,466.1
##  7  1986 6,728.5
##  8  1987 6,808.2
##  9  1988 7,263.8
## 10  1989 7,339.1
## #  with 29 more rows
…
